%YAML 1.1
%TAG !u! tag:unity3d.com,2011:
--- !u!1045 &1
EditorBuildSettings:
  m_ObjectHideFlags: 0
  serializedVersion: 2
  m_Scenes:
  - enabled: 1
    path: Assets/WebSocketSignalerTest.unity
    guid: e0c975b44f5f29f4b871a1e8966030dd
  m_configObjects: {}
